[api-updater (non-obsolete-error-filter)] 07/12/2021 12:14:43 a. m. : Starting C:/Program Files/Unity/Hub/Editor/2020.3.16f1/Editor/Data/Tools/ScriptUpdater/APIUpdater.NonObsoleteApiUpdaterDetector.exe
[api-updater (non-obsolete-error-filter)] 
----------------------------------
jit/startup time      : 6860.428ms
moved types parse time: 59ms
candidates parse time : 1ms
C# parse time         : 235ms
candidates check time : 152ms
console write time    : 1ms

[api-updater (non-obsolete-error-filter)] 07/12/2021 12:15:55 a. m. : Starting C:/Program Files/Unity/Hub/Editor/2020.3.16f1/Editor/Data/Tools/ScriptUpdater/APIUpdater.NonObsoleteApiUpdaterDetector.exe
[api-updater (non-obsolete-error-filter)] 
----------------------------------
jit/startup time      : 112.6941ms
moved types parse time: 51ms
candidates parse time : 1ms
C# parse time         : 192ms
candidates check time : 32ms
console write time    : 0ms

[api-updater (non-obsolete-error-filter)] 07/12/2021 12:16:07 a. m. : Starting C:/Program Files/Unity/Hub/Editor/2020.3.16f1/Editor/Data/Tools/ScriptUpdater/APIUpdater.NonObsoleteApiUpdaterDetector.exe
[api-updater (non-obsolete-error-filter)] 
----------------------------------
jit/startup time      : 87.2821ms
moved types parse time: 63ms
candidates parse time : 2ms
C# parse time         : 253ms
candidates check time : 31ms
console write time    : 0ms

[api-updater (non-obsolete-error-filter)] 07/12/2021 12:16:19 a. m. : Starting C:/Program Files/Unity/Hub/Editor/2020.3.16f1/Editor/Data/Tools/ScriptUpdater/APIUpdater.NonObsoleteApiUpdaterDetector.exe
[api-updater (non-obsolete-error-filter)] 
----------------------------------
jit/startup time      : 96.7412ms
moved types parse time: 56ms
candidates parse time : 1ms
C# parse time         : 367ms
candidates check time : 34ms
console write time    : 0ms

[api-updater (non-obsolete-error-filter)] 07/12/2021 12:16:50 a. m. : Starting C:/Program Files/Unity/Hub/Editor/2020.3.16f1/Editor/Data/Tools/ScriptUpdater/APIUpdater.NonObsoleteApiUpdaterDetector.exe
[api-updater (non-obsolete-error-filter)] 
----------------------------------
jit/startup time      : 92.7519ms
moved types parse time: 61ms
candidates parse time : 1ms
C# parse time         : 194ms
candidates check time : 34ms
console write time    : 0ms

[api-updater (non-obsolete-error-filter)] 07/12/2021 12:17:22 a. m. : Starting C:/Program Files/Unity/Hub/Editor/2020.3.16f1/Editor/Data/Tools/ScriptUpdater/APIUpdater.NonObsoleteApiUpdaterDetector.exe
[api-updater (non-obsolete-error-filter)] 
----------------------------------
jit/startup time      : 90.7569ms
moved types parse time: 51ms
candidates parse time : 1ms
C# parse time         : 211ms
candidates check time : 38ms
console write time    : 0ms

[api-updater (non-obsolete-error-filter)] 07/12/2021 12:19:56 a. m. : Starting C:/Program Files/Unity/Hub/Editor/2020.3.16f1/Editor/Data/Tools/ScriptUpdater/APIUpdater.NonObsoleteApiUpdaterDetector.exe
[api-updater (non-obsolete-error-filter)] 
----------------------------------
jit/startup time      : 113.2345ms
moved types parse time: 54ms
candidates parse time : 1ms
C# parse time         : 187ms
candidates check time : 34ms
console write time    : 0ms

[api-updater (non-obsolete-error-filter)] 07/12/2021 12:21:45 a. m. : Starting C:/Program Files/Unity/Hub/Editor/2020.3.16f1/Editor/Data/Tools/ScriptUpdater/APIUpdater.NonObsoleteApiUpdaterDetector.exe
[api-updater (non-obsolete-error-filter)] 
----------------------------------
jit/startup time      : 113.1347ms
moved types parse time: 54ms
candidates parse time : 1ms
C# parse time         : 199ms
candidates check time : 27ms
console write time    : 0ms

[api-updater (non-obsolete-error-filter)] 07/12/2021 12:23:44 a. m. : Starting C:/Program Files/Unity/Hub/Editor/2020.3.16f1/Editor/Data/Tools/ScriptUpdater/APIUpdater.NonObsoleteApiUpdaterDetector.exe
[api-updater (non-obsolete-error-filter)] 
----------------------------------
jit/startup time      : 109.7119ms
moved types parse time: 55ms
candidates parse time : 1ms
C# parse time         : 194ms
candidates check time : 30ms
console write time    : 0ms

[api-updater (non-obsolete-error-filter)] 07/12/2021 12:26:50 a. m. : Starting C:/Program Files/Unity/Hub/Editor/2020.3.16f1/Editor/Data/Tools/ScriptUpdater/APIUpdater.NonObsoleteApiUpdaterDetector.exe
[api-updater (non-obsolete-error-filter)] 
----------------------------------
jit/startup time      : 101.5381ms
moved types parse time: 54ms
candidates parse time : 1ms
C# parse time         : 206ms
candidates check time : 30ms
console write time    : 0ms

[api-updater (non-obsolete-error-filter)] 07/12/2021 02:49:53 a. m. : Starting C:/Program Files/Unity/Hub/Editor/2020.3.16f1/Editor/Data/Tools/ScriptUpdater/APIUpdater.NonObsoleteApiUpdaterDetector.exe
[api-updater (non-obsolete-error-filter)] 
----------------------------------
jit/startup time      : 618.3849ms
moved types parse time: 63ms
candidates parse time : 1ms
C# parse time         : 347ms
candidates check time : 35ms
console write time    : 0ms

[api-updater (non-obsolete-error-filter)] 07/12/2021 02:50:02 a. m. : Starting C:/Program Files/Unity/Hub/Editor/2020.3.16f1/Editor/Data/Tools/ScriptUpdater/APIUpdater.NonObsoleteApiUpdaterDetector.exe
[api-updater (non-obsolete-error-filter)] 
----------------------------------
jit/startup time      : 89.7658ms
moved types parse time: 72ms
candidates parse time : 3ms
C# parse time         : 361ms
candidates check time : 43ms
console write time    : 0ms

[api-updater (non-obsolete-error-filter)] 07/12/2021 04:39:17 a. m. : Starting C:/Program Files/Unity/Hub/Editor/2020.3.16f1/Editor/Data/Tools/ScriptUpdater/APIUpdater.NonObsoleteApiUpdaterDetector.exe
[api-updater (non-obsolete-error-filter)] 
----------------------------------
jit/startup time      : 787.5997ms
moved types parse time: 60ms
candidates parse time : 1ms
C# parse time         : 189ms
candidates check time : 34ms
console write time    : 0ms

[api-updater (non-obsolete-error-filter)] 07/12/2021 06:09:13 a. m. : Starting C:/Program Files/Unity/Hub/Editor/2020.3.16f1/Editor/Data/Tools/ScriptUpdater/APIUpdater.NonObsoleteApiUpdaterDetector.exe
[api-updater (non-obsolete-error-filter)] 
----------------------------------
jit/startup time      : 888.8095ms
moved types parse time: 83ms
candidates parse time : 2ms
C# parse time         : 278ms
candidates check time : 31ms
console write time    : 0ms

[api-updater (non-obsolete-error-filter)] 07/12/2021 05:11:27 p. m. : Starting C:/Program Files/Unity/Hub/Editor/2020.3.16f1/Editor/Data/Tools/ScriptUpdater/APIUpdater.NonObsoleteApiUpdaterDetector.exe
[api-updater (non-obsolete-error-filter)] 
----------------------------------
jit/startup time      : 608.3719ms
moved types parse time: 57ms
candidates parse time : 1ms
C# parse time         : 358ms
candidates check time : 45ms
console write time    : 0ms

[api-updater (non-obsolete-error-filter)] 07/12/2021 05:12:05 p. m. : Starting C:/Program Files/Unity/Hub/Editor/2020.3.16f1/Editor/Data/Tools/ScriptUpdater/APIUpdater.NonObsoleteApiUpdaterDetector.exe
[api-updater (non-obsolete-error-filter)] 
----------------------------------
jit/startup time      : 88.7632ms
moved types parse time: 51ms
candidates parse time : 1ms
C# parse time         : 195ms
candidates check time : 33ms
console write time    : 0ms

[api-updater (non-obsolete-error-filter)] 07/12/2021 05:12:17 p. m. : Starting C:/Program Files/Unity/Hub/Editor/2020.3.16f1/Editor/Data/Tools/ScriptUpdater/APIUpdater.NonObsoleteApiUpdaterDetector.exe
[api-updater (non-obsolete-error-filter)] 
----------------------------------
jit/startup time      : 95.7451ms
moved types parse time: 56ms
candidates parse time : 1ms
C# parse time         : 187ms
candidates check time : 36ms
console write time    : 0ms

[api-updater (non-obsolete-error-filter)] 07/12/2021 05:12:27 p. m. : Starting C:/Program Files/Unity/Hub/Editor/2020.3.16f1/Editor/Data/Tools/ScriptUpdater/APIUpdater.NonObsoleteApiUpdaterDetector.exe
[api-updater (non-obsolete-error-filter)] 
----------------------------------
jit/startup time      : 93.8336ms
moved types parse time: 52ms
candidates parse time : 1ms
C# parse time         : 250ms
candidates check time : 46ms
console write time    : 0ms

[api-updater (non-obsolete-error-filter)] 07/12/2021 05:12:46 p. m. : Starting C:/Program Files/Unity/Hub/Editor/2020.3.16f1/Editor/Data/Tools/ScriptUpdater/APIUpdater.NonObsoleteApiUpdaterDetector.exe
[api-updater (non-obsolete-error-filter)] 
----------------------------------
jit/startup time      : 93.769ms
moved types parse time: 50ms
candidates parse time : 1ms
C# parse time         : 186ms
candidates check time : 35ms
console write time    : 0ms

[api-updater (non-obsolete-error-filter)] 07/12/2021 05:13:06 p. m. : Starting C:/Program Files/Unity/Hub/Editor/2020.3.16f1/Editor/Data/Tools/ScriptUpdater/APIUpdater.NonObsoleteApiUpdaterDetector.exe
[api-updater (non-obsolete-error-filter)] 
----------------------------------
jit/startup time      : 91.7564ms
moved types parse time: 54ms
candidates parse time : 1ms
C# parse time         : 205ms
candidates check time : 30ms
console write time    : 0ms

