%YAML 1.1
%TAG !u! tag:unity3d.com,2011:
--- !u!1 &688084442135653434
GameObject:
  m_ObjectHideFlags: 0
  m_CorrespondingSourceObject: {fileID: 0}
  m_PrefabInstance: {fileID: 0}
  m_PrefabAsset: {fileID: 0}
  serializedVersion: 6
  m_Component:
  - component: {fileID: 4779268199607639816}
  - component: {fileID: 8504961016711480381}
  m_Layer: 0
  m_Name: TacoBoss
  m_TagString: Untagged
  m_Icon: {fileID: 0}
  m_NavMeshLayer: 0
  m_StaticEditorFlags: 0
  m_IsActive: 1
--- !u!4 &4779268199607639816
Transform:
  m_ObjectHideFlags: 0
  m_CorrespondingSourceObject: {fileID: 0}
  m_PrefabInstance: {fileID: 0}
  m_PrefabAsset: {fileID: 0}
  m_GameObject: {fileID: 688084442135653434}
  m_LocalRotation: {x: 0, y: 0, z: 0, w: 1}
  m_LocalPosition: {x: 29.845, y: 1.5, z: -3.901}
  m_LocalScale: {x: 1, y: 1, z: 1}
  m_Children:
  - {fileID: 7536856727336869387}
  m_Father: {fileID: 0}
  m_RootOrder: 0
  m_LocalEulerAnglesHint: {x: 0, y: 0, z: 0}
--- !u!135 &8504961016711480381
SphereCollider:
  m_ObjectHideFlags: 0
  m_CorrespondingSourceObject: {fileID: 0}
  m_PrefabInstance: {fileID: 0}
  m_PrefabAsset: {fileID: 0}
  m_GameObject: {fileID: 688084442135653434}
  m_Material: {fileID: 0}
  m_IsTrigger: 0
  m_Enabled: 1
  serializedVersion: 2
  m_Radius: 2.5
  m_Center: {x: 0, y: 0, z: 0}
--- !u!1001 &7289154649983104423
PrefabInstance:
  m_ObjectHideFlags: 0
  serializedVersion: 2
  m_Modification:
    m_TransformParent: {fileID: 4779268199607639816}
    m_Modifications:
    - target: {fileID: 503238116987646230, guid: 7a7c28d4d34125346b43dfbc7cc7597a, type: 3}
      propertyPath: m_Name
      value: taco
      objectReference: {fileID: 0}
    - target: {fileID: 986302380835105708, guid: 7a7c28d4d34125346b43dfbc7cc7597a, type: 3}
      propertyPath: m_RootOrder
      value: 0
      objectReference: {fileID: 0}
    - target: {fileID: 986302380835105708, guid: 7a7c28d4d34125346b43dfbc7cc7597a, type: 3}
      propertyPath: m_LocalPosition.x
      value: -0.15499878
      objectReference: {fileID: 0}
    - target: {fileID: 986302380835105708, guid: 7a7c28d4d34125346b43dfbc7cc7597a, type: 3}
      propertyPath: m_LocalPosition.y
      value: 0.059999943
      objectReference: {fileID: 0}
    - target: {fileID: 986302380835105708, guid: 7a7c28d4d34125346b43dfbc7cc7597a, type: 3}
      propertyPath: m_LocalPosition.z
      value: -0.042999983
      objectReference: {fileID: 0}
    - target: {fileID: 986302380835105708, guid: 7a7c28d4d34125346b43dfbc7cc7597a, type: 3}
      propertyPath: m_LocalRotation.w
      value: 1
      objectReference: {fileID: 0}
    - target: {fileID: 986302380835105708, guid: 7a7c28d4d34125346b43dfbc7cc7597a, type: 3}
      propertyPath: m_LocalRotation.x
      value: -0
      objectReference: {fileID: 0}
    - target: {fileID: 986302380835105708, guid: 7a7c28d4d34125346b43dfbc7cc7597a, type: 3}
      propertyPath: m_LocalRotation.y
      value: -0
      objectReference: {fileID: 0}
    - target: {fileID: 986302380835105708, guid: 7a7c28d4d34125346b43dfbc7cc7597a, type: 3}
      propertyPath: m_LocalRotation.z
      value: -0
      objectReference: {fileID: 0}
    - target: {fileID: 986302380835105708, guid: 7a7c28d4d34125346b43dfbc7cc7597a, type: 3}
      propertyPath: m_LocalEulerAnglesHint.x
      value: 0
      objectReference: {fileID: 0}
    - target: {fileID: 986302380835105708, guid: 7a7c28d4d34125346b43dfbc7cc7597a, type: 3}
      propertyPath: m_LocalEulerAnglesHint.y
      value: 0
      objectReference: {fileID: 0}
    - target: {fileID: 986302380835105708, guid: 7a7c28d4d34125346b43dfbc7cc7597a, type: 3}
      propertyPath: m_LocalEulerAnglesHint.z
      value: 0
      objectReference: {fileID: 0}
    m_RemovedComponents: []
  m_SourcePrefab: {fileID: 100100000, guid: 7a7c28d4d34125346b43dfbc7cc7597a, type: 3}
--- !u!4 &7536856727336869387 stripped
Transform:
  m_CorrespondingSourceObject: {fileID: 986302380835105708, guid: 7a7c28d4d34125346b43dfbc7cc7597a, type: 3}
  m_PrefabInstance: {fileID: 7289154649983104423}
  m_PrefabAsset: {fileID: 0}
