%YAML 1.1
%TAG !u! tag:unity3d.com,2011:
--- !u!114 &-1617295904718396248
MonoBehaviour:
  m_ObjectHideFlags: 11
  m_CorrespondingSourceObject: {fileID: 0}
  m_PrefabInstance: {fileID: 0}
  m_PrefabAsset: {fileID: 0}
  m_GameObject: {fileID: 0}
  m_Enabled: 1
  m_EditorHideFlags: 0
  m_Script: {fileID: 11500000, guid: d0353a89b1f911e48b9e16bdc9f2e058, type: 3}
  m_Name: 
  m_EditorClassIdentifier: 
  version: 2
--- !u!21 &2100000
Material:
  serializedVersion: 6
  m_ObjectHideFlags: 0
  m_CorrespondingSourceObject: {fileID: 0}
  m_PrefabInstance: {fileID: 0}
  m_PrefabAsset: {fileID: 0}
  m_Name: SpriteShadow
  m_Shader: {fileID: 10753, guid: 0000000000000000f000000000000000, type: 0}
  m_ShaderKeywords: ETC1_EXTERNAL_ALPHA
  m_LightmapFlags: 0
  m_EnableInstancingVariants: 0
  m_DoubleSidedGI: 1
  m_CustomRenderQueue: -1
  stringTagMap: {}
  disabledShaderPasses: []
  m_SavedProperties:
    serializedVersion: 3
    m_TexEnvs:
    - Texture2D_C69EB180:
        m_Texture: {fileID: 0}
        m_Scale: {x: 1, y: 1}
        m_Offset: {x: 0, y: 0}
    - _AlphaTex:
        m_Texture: {fileID: 0}
        m_Scale: {x: 1, y: 1}
        m_Offset: {x: 0, y: 0}
    - _BASE_COLOR_MAP:
        m_Texture: {fileID: 0}
        m_Scale: {x: 1, y: 1}
        m_Offset: {x: 0, y: 0}
    - _BaseMap:
        m_Texture: {fileID: 0}
        m_Scale: {x: 1, y: 1}
        m_Offset: {x: 0, y: 0}
    - _BumpMap:
        m_Texture: {fileID: 0}
        m_Scale: {x: 1, y: 1}
        m_Offset: {x: 0, y: 0}
    - _EMISSION_COLOR_MAP:
        m_Texture: {fileID: 0}
        m_Scale: {x: 1, y: 1}
        m_Offset: {x: 0, y: 0}
    - _EmissionMap:
        m_Texture: {fileID: 0}
        m_Scale: {x: 1, y: 1}
        m_Offset: {x: 0, y: 0}
    - _METALNESS_MAP:
        m_Texture: {fileID: 0}
        m_Scale: {x: 1, y: 1}
        m_Offset: {x: 0, y: 0}
    - _MainTex:
        m_Texture: {fileID: 0}
        m_Scale: {x: 1, y: 1}
        m_Offset: {x: 0, y: 0}
    - _MaskTex:
        m_Texture: {fileID: 0}
        m_Scale: {x: 1, y: 1}
        m_Offset: {x: 0, y: 0}
    - _MetallicGlossMap:
        m_Texture: {fileID: 0}
        m_Scale: {x: 1, y: 1}
        m_Offset: {x: 0, y: 0}
    - _NORMAL_MAP:
        m_Texture: {fileID: 0}
        m_Scale: {x: 1, y: 1}
        m_Offset: {x: 0, y: 0}
    - _NormalMap:
        m_Texture: {fileID: 0}
        m_Scale: {x: 1, y: 1}
        m_Offset: {x: 0, y: 0}
    - _OcclusionMap:
        m_Texture: {fileID: 0}
        m_Scale: {x: 1, y: 1}
        m_Offset: {x: 0, y: 0}
    - _SPECULAR_COLOR_MAP:
        m_Texture: {fileID: 0}
        m_Scale: {x: 1, y: 1}
        m_Offset: {x: 0, y: 0}
    - _SPECULAR_IOR_MAP:
        m_Texture: {fileID: 0}
        m_Scale: {x: 1, y: 1}
        m_Offset: {x: 0, y: 0}
    - _SPECULAR_ROUGHNESS_MAP:
        m_Texture: {fileID: 0}
        m_Scale: {x: 1, y: 1}
        m_Offset: {x: 0, y: 0}
    - _SampleTexture2D_72715EE4_Texture_1:
        m_Texture: {fileID: 2800000, guid: ca084ebab0cef7c4ba746cdb442f9c1e, type: 3}
        m_Scale: {x: 1, y: 1}
        m_Offset: {x: 0, y: 0}
    - _SampleTexture2D_C873BFA4_Texture_1:
        m_Texture: {fileID: 2800000, guid: 2de0d72a6700bd94ea57111b29e246fc, type: 3}
        m_Scale: {x: 1, y: 1}
        m_Offset: {x: 0, y: 0}
    - _SampleTexture2D_CDBC38BA_Texture_1:
        m_Texture: {fileID: 2800000, guid: 5e98de278b2ccc14f89b76b85596a3f3, type: 3}
        m_Scale: {x: 1, y: 1}
        m_Offset: {x: 0, y: 0}
    - _SampleTexture2D_D6BD25ED_Texture_1:
        m_Texture: {fileID: 2800000, guid: ac80c335ebd6dde4fa54a82050064545, type: 3}
        m_Scale: {x: 1, y: 1}
        m_Offset: {x: 0, y: 0}
    - _SpecGlossMap:
        m_Texture: {fileID: 0}
        m_Scale: {x: 1, y: 1}
        m_Offset: {x: 0, y: 0}
    - unity_Lightmaps:
        m_Texture: {fileID: 0}
        m_Scale: {x: 1, y: 1}
        m_Offset: {x: 0, y: 0}
    - unity_LightmapsInd:
        m_Texture: {fileID: 0}
        m_Scale: {x: 1, y: 1}
        m_Offset: {x: 0, y: 0}
    - unity_ShadowMasks:
        m_Texture: {fileID: 0}
        m_Scale: {x: 1, y: 1}
        m_Offset: {x: 0, y: 0}
    m_Floats:
    - PixelSnap: 0
    - Vector1_2EE2CB80: 0.1
    - _AlphaClip: 0
    - _Blend: 0
    - _BlendOp: 0
    - _BumpScale: 1
    - _CameraFadingEnabled: 0
    - _CameraFarFadeDistance: 2
    - _CameraNearFadeDistance: 1
    - _Cull: 2
    - _Cutoff: 0.49
    - _DistortionBlend: 0.5
    - _DistortionEnabled: 0
    - _DistortionStrength: 1
    - _DistortionStrengthScaled: 0
    - _DstBlend: 0
    - _EmissionEnabled: 0
    - _EnableExternalAlpha: 0
    - _EnvironmentReflections: 1
    - _FlipbookMode: 0
    - _GlossMapScale: 0
    - _Glossiness: 0
    - _GlossinessSource: 0
    - _GlossyReflections: 0
    - _LightingEnabled: 1
    - _METALNESS: 0
    - _Metallic: 0
    - _Mode: 0
    - _OcclusionStrength: 1
    - _QueueOffset: 0
    - _ReceiveShadows: 1
    - _SPECULAR_IOR: 1.5
    - _SPECULAR_ROUGHNESS: 0
    - _Shininess: 0
    - _Smoothness: 0.5
    - _SmoothnessSource: 0
    - _SmoothnessTextureChannel: 0
    - _SoftParticlesEnabled: 0
    - _SoftParticlesFarFadeDistance: 1
    - _SoftParticlesNearFadeDistance: 0
    - _SpecSource: 0
    - _SpecularHighlights: 1
    - _SrcBlend: 1
    - _Surface: 0
    - _WorkflowMode: 1
    - _ZWrite: 1
    m_Colors:
    - Color_23C9B10D: {r: 0.04561229, g: 0.14495295, b: 0.38679245, a: 0}
    - Color_A2AAE5B5: {r: 0.11372546, g: 0.62745106, b: 0.8352941, a: 0}
    - Vector2_C848BFFB: {r: 0.25, g: 0.25, b: 0, a: 0}
    - _BASE_COLOR: {r: 0, g: 0, b: 0, a: 0}
    - _BaseColor: {r: 1, g: 1, b: 1, a: 1}
    - _CameraFadeParams: {r: 0, g: Infinity, b: 0, a: 0}
    - _Color: {r: 1, g: 1, b: 1, a: 1}
    - _EMISSION_COLOR: {r: 0, g: 0, b: 0, a: 0}
    - _EmissionColor: {r: 0, g: 0, b: 0, a: 1}
    - _Flip: {r: 1, g: 1, b: 1, a: 1}
    - _RendererColor: {r: 1, g: 1, b: 1, a: 1}
    - _SPECULAR_COLOR: {r: 1, g: 1, b: 1, a: 0}
    - _SoftParticleFadeParams: {r: 0, g: 0, b: 0, a: 0}
    - _SpecColor: {r: 0.19999996, g: 0.19999996, b: 0.19999996, a: 1}
  m_BuildTextureStacks: []
